…
Then summarize within cities to obtain the total number of homicides and
the number of unsolved homicides.

``` r
city_summary = homicide_tidy %>%
  group_by(city_state) %>%
  summarise(num_homicides = n(),
            num_unsolved_homicides = sum(resolved == "unsolved")) 
city_summary 
```

    ## # A tibble: 50 × 3
    ##    city_state      num_homicides num_unsolved_homicides
    ##    <chr>                   <int>                  <int>
    ##  1 Albuquerque, NM           378                    146
    ##  2 Atlanta, GA               973                    373
    ##  3 Baltimore, MD            2827                   1825
    ##  4 Baton Rouge, LA           424                    196
    ##  5 Birmingham, AL            800                    347
    ##  6 Boston, MA                614                    310
    ##  7 Buffalo, NY               521                    319
    ##  8 Charlotte, NC             687                    206
    ##  9 Chicago, IL              5535                   4073
    ## 10 Cincinnati, OH            694                    309
    ## # … with 40 more rows
…
